Dendrometer processing in R
…
# A tibble: 28 × 12
   TIME       D28_W D39_W  D4_W D15_W D25_W D31_D D43_D  D7_D D19_D D33_D   IDs
   <date>     <dbl> <dbl> <dbl> <dbl> <dbl> <dbl> <dbl> <dbl> <dbl> <dbl> <dbl>
 1 2023-07-07   0     0     0     0     0     0     0    0      0     0       1
 2 2023-07-08  65.1  67.3  55.6  52.0  46.7  44.2  53.8 25.4   38.1  25.2     1
 3 2023-07-09 118.  124.  101.  108.   81.2  91.3 117.  54.0   75.7  71.9     1
 4 2023-07-10 162.  169.  147.  147.  145.  137.  156.  62.6  102.   94.5     1
 5 2023-07-11 203.  211.  191.  204.  172.  183.  210.  88.7  140.  140.      1
 6 2023-07-12 247.  253.  227.  228.  261.  226.  253.  99.2  158.  166.      1
 7 2023-07-14   0     0     0     0     0     0     0    0      0     0       2
 8 2023-07-15  29.3  33.6  29.1  50.6  29.6  19.9  16.7  1.37  16.1  14.4     2
 9 2023-07-16  70.8  81.7  77.1 103.   91.7  46.5  36.6  4.77  25.3  33.7     2
10 2023-07-17 106.   99.4 109.  137.  114.   68.7  54.6  1.13  34.5  54.9     2
# ℹ 18 more rows
…
